<svg width="199" height="199" viewBox="0 0 199 199" fill="none" xmlns="http://www.w3.org/2000/svg">
<g filter="url(#filter0_d_3083_104)">
<circle cx="98.4999" cy="98.5" r="77.1667" stroke="url(#paint0_radial_3083_104)" stroke-width="20"/>
</g>
<defs>
<filter id="filter0_d_3083_104" x="0.333252" y="0.333313" width="198.333" height="198.333" filterUnits="userSpaceOnUse" color-interpolation-filters="sRGB">
<feFlood flood-opacity="0" result="BackgroundImageFix"/>
<feColorMatrix in="SourceAlpha" type="matrix" values="0 0 0 0 0 0 0 0 0 0 0 0 0 0 0 0 0 0 127 0" result="hardAlpha"/>
<feOffset dx="1" dy="1"/>
<feGaussianBlur stdDeviation="6"/>
<feColorMatrix type="matrix" values="0 0 0 0 0.420718 0 0 0 0 0.290978 0 0 0 0 0.338156 0 0 0 0.2 0"/>
<feBlend mode="normal" in2="BackgroundImageFix" result="effect1_dropShadow_3083_104"/>
<feBlend mode="normal" in="SourceGraphic" in2="effect1_dropShadow_3083_104" result="shape"/>
</filter>
<radialGradient id="paint0_radial_3083_104" cx="0" cy="0" r="1" gradientUnits="userSpaceOnUse" gradientTransform="translate(98.4999 98.5) rotate(90) scale(77.1667)">
<stop stop-color="#EB0057"/>
<stop offset="1" stop-color="#E38BAC"/>
</radialGradient>
</defs>
</svg>
