<svg width="34" height="14" viewBox="0 0 34 14" fill="none" xmlns="http://www.w3.org/2000/svg">
<path fill-rule="evenodd" clip-rule="evenodd" d="M26.7059 14H7.29412C3.50882 14 0.5 10.9 0.5 7C0.5 3.1 3.50882 0 7.29412 0H26.7059C30.4912 0 33.5 3.1 33.5 7C33.5 10.9 30.4912 14 26.7059 14Z" fill="#DCDCDF"/>
</svg>
